Data Science Assignment 04
…
# join emissions and GDP tables
ghg_gdp <- left_join(fin_ghg,
                     fin_gdp,
                     by = c("country" = "country", "year" = "year"))

# join ghg_gdp with population table
ghg_gdp_pop <- left_join(ghg_gdp,
                         fin_pop,
                         by = c("country" = "country", "year" = "year")) %>%
  filter(emissions > 0 & GDP > 0 & population > 0)

# print final, cleaned table
ghg_gdp_pop

# A tibble: 3,633 × 5
   country     year  emissions          GDP population
   <chr>       <chr>     <dbl>        <dbl>      <dbl>
 1 Afghanistan 2002     16674. 26890054382.   22600774
 2 Afghanistan 2003     17359. 29265058689.   23680871
 3 Afghanistan 2004     17113. 29678901146.   24726689
 4 Afghanistan 2005     18023. 33011757108.   25654274
 5 Afghanistan 2006     18472. 34780330056.   26433058
 6 Afghanistan 2007     19400. 39589169630.   27100542
 7 Afghanistan 2008     22875. 41143038133.   27722281
 8 Afghanistan 2009     26106. 49943751387.   28394806
 9 Afghanistan 2010     30099. 57116893447.   29185511
10 Afghanistan 2011     34584. 57360414055.   30117411
# … with 3,623 more rows
…
